Styles and Climate Analysis (Proof-of-concept)
…
Then I tokenize the dataset through unigrams i.e 1 word / term

Next I identify stop words in the data frame by merging in a taxonomy from tidytext package. And removed them thereafter.

I then use count function to find the most common words under the Strengths Column.

We could see that the most common words are team, people, leadership, positive - suggesting that people tend to have these attributes as their strenghts

## # A tibble: 44,807 x 2
##          word     n
##         <chr> <int>
##  1       team 92549
##  2     people 29500
##  3 leadership 23050
##  4     leader 22494
##  5     strong 18185
##  6       time 17211
##  7   business 16274
##  8     skills 13301
##  9   positive 13030
## 10    ability 12931
## # ... with 44,797 more rows
…
Sentiment analysis

1 of the common toolkits in text analysis is Sentiment Analysis. Using an existing sentiment taxonomy, Im able to tag words as positive or negative.

We could see that the words the top 10 most common words are positively connotated which is intuitive since I limited the dataset to only the strengths.

## Joining, by = "word"

## # A tibble: 3,024 x 3
##          word sentiment     n
##         <chr>     <chr> <int>
##  1     strong  positive 18185
##  2   positive  positive 13030
##  3     issues  negative 11993
##  4    support  positive 11291
##  5 supportive  positive  9396
##  6      leads  positive  8078
##  7      trust  positive  7773
##  8     honest  positive  6970
##  9       lead  positive  6482
## 10  excellent  positive  6165
## # ... with 3,014 more rows
…
## Warning: package 'tm' was built under R version 3.4.3

## Warning: package 'topicmodels' was built under R version 3.4.3

## A LDA_VEM topic model with 2 topics.

Word-topic probabilities

LDA allows us to extract per-topic-per-word probabilities (Beta) from the model.

The model assigned probabilities to each term of being generated from either of the 2 topics.

As you would notice, many of the terms below are not formatted properly (e.g.punctuations and numbers ought to be removed; only keep the root words through stemming). I will do so in further iterations.

## # A tibble: 89,606 x 3
##    topic       term         beta
##    <int>      <chr>        <dbl>
##  1     1        ___ 1.284070e-06
##  2     2        ___ 2.895536e-07
##  3     1       ____ 2.986492e-07
##  4     2       ____ 4.899843e-07
##  5     1     ______ 4.271346e-07
##  6     2     ______ 3.608173e-07
##  7     1  _decision 4.579167e-07
##  8     2  _decision 3.298719e-07
##  9     1 _excessive 2.415645e-07
## 10     2 _excessive 5.473718e-07
## # ... with 89,596 more rows
…
Per-document classification

Through LDA, we are also able to assign a topic to each document - in our case, a topic to each comment.

## # A tibble: 250,814 x 3
##           document topic     gamma
##              <chr> <int>     <dbl>
##  1 2222276Z            1 0.4962823
##  2 2222276Z            2 0.5037177
##  3 22224ZTD            1 0.4968643
##  4 22224ZTD            2 0.5031357
##  5 2223455G            1 0.4933656
##  6 2223455G            2 0.5066344
##  7 222365KZ            1 0.5128938
##  8 222365KZ            2 0.4871062
##  9 2223H4KC            1 0.5065779
## 10 2223H4KC            2 0.4934221
## # ... with 250,804 more rows
…
